[
  {
    "city": "new york",
    "total_crime_incidents": 329187,
    "murder": 0,
    "assault": 2361,
    "drugs": 0,
    "burglary": 7999,
    "vandalism": 28129,
    "dui": 3103,
    "sex_offenses": 1040,
    "theft": 19689,
    "animal_cruelty": 122,
    "other_offenses": 23478
  },
  {
    "city": "los angeles",
    "total_crime_incidents": 142629,
    "murder": 177,
    "assault": 8826,
    "drugs": 12,
    "burglary": 7848,
    "vandalism": 12651,
    "dui": 0,
    "sex_offenses": 255,
    "theft": 255,
    "animal_cruelty": 28,
    "other_offenses": 5474
  },
  {
    "city": "chicago",
    "total_crime_incidents": 223841,
    "murder": 420,
    "assault": 0,
    "drugs": 12958,
    "burglary": 8275,
    "vandalism": 22292,
    "dui": 0,
    "sex_offenses": 1220,
    "theft": 0,
    "animal_cruelty": 0,
    "other_offenses": 14995
  },
  {
    "city": "houston",
    "total_crime_incidents": 132333,
    "murder": 56,
    "assault": 8846,
    "drugs": 3273,
    "burglary": 14201,
    "vandalism": 11008,
    "dui": 0,
    "sex_offenses": 0,
    "theft": 1371,
    "animal_cruelty": 0,
    "other_offenses": 3903
  },
  {
    "city": "philadelphia",
    "total_crime_incidents": 161747,
    "murder": 278,
    "assault": 7810,
    "drugs": 10215,
    "burglary": 5871,
    "vandalism": 14024,
    "dui": 2250,
    "sex_offenses": 911,
    "theft": 0,
    "animal_cruelty": 0,
    "other_offenses": 30232
  },
  {
    "city": "phoenix",
    "total_crime_incidents": 52517,
    "murder": 105,
    "assault": 4491,
    "drugs": 5940,
    "burglary": 6629,
    "vandalism": 0,
    "dui": 0,
    "sex_offenses": 0,
    "theft": 0,
    "animal_cruelty": 0,
    "other_offenses": 2
  },
  {
    "city": "san antonio",
    "total_crime_incidents": 0,
    "murder": 0,
    "assault": 0,
    "drugs": 0,
    "burglary": 0,
    "vandalism": 0,
    "dui": 0,
    "sex_offenses": 0,
    "theft": 0,
    "animal_cruelty": 0,
    "other_offenses": 0
  },
  {
    "city": "san diego",
    "total_crime_incidents": 30256,
    "murder": 37,
    "assault": 748,
    "drugs": 3661,
    "burglary": 1196,
    "vandalism": 2493,
    "dui": 3397,
    "sex_offenses": 62,
    "theft": 1023,
    "animal_cruelty": 1,
    "other_offenses": 1698
  },
  {
    "city": "dallas",
    "total_crime_incidents": 132015,
    "murder": 134,
    "assault": 13,
    "drugs": 4931,
    "burglary": 7675,
    "vandalism": 8261,
    "dui": 1396,
    "sex_offenses": 0,
    "theft": 0,
    "animal_cruelty": 0,
    "other_offenses": 52625
  },
  {
    "city": "san jose",
    "total_crime_incidents": 126774,
    "murder": 24,
    "assault": 617,
    "drugs": 2602,
    "burglary": 1910,
    "vandalism": 2213,
    "dui": 5,
    "sex_offenses": 516,
    "theft": 0,
    "animal_cruelty": 43,
    "other_offenses": 57393
  },
  {
    "city": "austin",
    "total_crime_incidents": 93670,
    "murder": 29,
    "assault": 7891,
    "drugs": 2438,
    "burglary": 3740,
    "vandalism": 5461,
    "dui": 3516,
    "sex_offenses": 207,
    "theft": 313,
    "animal_cruelty": 194,
    "other_offenses": 6718
  },
  {
    "city": "indianapolis",
    "total_crime_incidents": 456473,
    "murder": 2658,
    "assault": 2548,
    "drugs": 9171,
    "burglary": 14528,
    "vandalism": 15158,
    "dui": 1587,
    "sex_offenses": 8483,
    "theft": 2515,
    "animal_cruelty": 55,
    "other_offenses": 188601
  },
  {
    "city": "jacksonville",
    "total_crime_incidents": 0,
    "murder": 0,
    "assault": 0,
    "drugs": 0,
    "burglary": 0,
    "vandalism": 0,
    "dui": 0,
    "sex_offenses": 0,
    "theft": 0,
    "animal_cruelty": 0,
    "other_offenses": 0
  },
  {
    "city": "san francisco",
    "total_crime_incidents": 140931,
    "murder": 2,
    "assault": 3166,
    "drugs": 3759,
    "burglary": 5936,
    "vandalism": 8450,
    "dui": 14,
    "sex_offenses": 167,
    "theft": 2772,
    "animal_cruelty": 0,
    "other_offenses": 43401
  },
  {
    "city": "columbus",
    "total_crime_incidents": 1,
    "murder": 0,
    "assault": 0,
    "drugs": 0,
    "burglary": 0,
    "vandalism": 0,
    "dui": 0,
    "sex_offenses": 0,
    "theft": 0,
    "animal_cruelty": 0,
    "other_offenses": 1
  },
  {
    "city": "charlotte",
    "total_crime_incidents": 0,
    "murder": 0,
    "assault": 0,
    "drugs": 0,
    "burglary": 0,
    "vandalism": 0,
    "dui": 0,
    "sex_offenses": 0,
    "theft": 0,
    "animal_cruelty": 0,
    "other_offenses": 0
  },
  {
    "city": "fort worth",
    "total_crime_incidents": 50060,
    "murder": 38,
    "assault": 1691,
    "drugs": 3004,
    "burglary": 3399,
    "vandalism": 4454,
    "dui": 898,
    "sex_offenses": 305,
    "theft": 0,
    "animal_cruelty": 0,
    "other_offenses": 4829
  },
  {
    "city": "detroit",
    "total_crime_incidents": 61661,
    "murder": 233,
    "assault": 6351,
    "drugs": 1063,
    "burglary": 4820,
    "vandalism": 5998,
    "dui": 0,
    "sex_offenses": 106,
    "theft": 2381,
    "animal_cruelty": 2,
    "other_offenses": 2380
  },
  {
    "city": "el paso",
    "total_crime_incidents": 0,
    "murder": 0,
    "assault": 0,
    "drugs": 0,
    "burglary": 0,
    "vandalism": 0,
    "dui": 0,
    "sex_offenses": 0,
    "theft": 0,
    "animal_cruelty": 0,
    "other_offenses": 0
  },
  {
    "city": "memphis",
    "total_crime_incidents": 32237,
    "murder": 0,
    "assault": 1720,
    "drugs": 1383,
    "burglary": 2993,
    "vandalism": 3969,
    "dui": 188,
    "sex_offenses": 0,
    "theft": 1104,
    "animal_cruelty": 0,
    "other_offenses": 1601
  },
  {
    "city": "seattle",
    "total_crime_incidents": 21509,
    "murder": 78,
    "assault": 1028,
    "drugs": 472,
    "burglary": 3352,
    "vandalism": 281,
    "dui": 484,
    "sex_offenses": 391,
    "theft": 68,
    "animal_cruelty": 1,
    "other_offenses": 21
  },
  {
    "city": "denver",
    "total_crime_incidents": 107659,
    "murder": 89,
    "assault": 2915,
    "drugs": 4356,
    "burglary": 5840,
    "vandalism": 7654,
    "dui": 509,
    "sex_offenses": 393,
    "theft": 1786,
    "animal_cruelty": 29,
    "other_offenses": 30166
  },
  {
    "city": "washington",
    "total_crime_incidents": 75747,
    "murder": 484,
    "assault": 6476,
    "drugs": 0,
    "burglary": 6327,
    "vandalism": 0,
    "dui": 0,
    "sex_offenses": 183,
    "theft": 0,
    "animal_cruelty": 0,
    "other_offenses": 0
  },
  {
    "city": "boston",
    "total_crime_incidents": 90280,
    "murder": 426,
    "assault": 2405,
    "drugs": 3823,
    "burglary": 1624,
    "vandalism": 3984,
    "dui": 102,
    "sex_offenses": 27,
    "theft": 2538,
    "animal_cruelty": 19,
    "other_offenses": 43598
  },
  {
    "city": "nashville-davidson",
    "total_crime_incidents": 102861,
    "murder": 399,
    "assault": 8493,
    "drugs": 4306,
    "burglary": 3560,
    "vandalism": 6603,
    "dui": 20,
    "sex_offenses": 160,
    "theft": 2950,
    "animal_cruelty": 8,
    "other_offenses": 28562
  },
  {
    "city": "baltimore",
    "total_crime_incidents": 89040,
    "murder": 706,
    "assault": 10553,
    "drugs": 0,
    "burglary": 10511,
    "vandalism": 0,
    "dui": 0,
    "sex_offenses": 0,
    "theft": 0,
    "animal_cruelty": 0,
    "other_offenses": 0
  },
  {
    "city": "oklahoma city",
    "total_crime_incidents": 2,
    "murder": 0,
    "assault": 0,
    "drugs": 0,
    "burglary": 0,
    "vandalism": 0,
    "dui": 0,
    "sex_offenses": 0,
    "theft": 0,
    "animal_cruelty": 0,
    "other_offenses": 0
  },
  {
    "city": "louisville/jefferson county",
    "total_crime_incidents": 0,
    "murder": 0,
    "assault": 0,
    "drugs": 0,
    "burglary": 0,
    "vandalism": 0,
    "dui": 0,
    "sex_offenses": 0,
    "theft": 0,
    "animal_cruelty": 0,
    "other_offenses": 0
  },
  {
    "city": "portland",
    "total_crime_incidents": 52212,
    "murder": 0,
    "assault": 44,
    "drugs": 0,
    "burglary": 853,
    "vandalism": 809,
    "dui": 0,
    "sex_offenses": 0,
    "theft": 0,
    "animal_cruelty": 0,
    "other_offenses": 31993
  },
  {
    "city": "las vegas",
    "total_crime_incidents": 4,
    "murder": 0,
    "assault": 1,
    "drugs": 0,
    "burglary": 0,
    "vandalism": 0,
    "dui": 0,
    "sex_offenses": 0,
    "theft": 0,
    "animal_cruelty": 0,
    "other_offenses": 1
  },
  {
    "city": "milwaukee",
    "total_crime_incidents": 0,
    "murder": 0,
    "assault": 0,
    "drugs": 0,
    "burglary": 0,
    "vandalism": 0,
    "dui": 0,
    "sex_offenses": 0,
    "theft": 0,
    "animal_cruelty": 0,
    "other_offenses": 0
  },
  {
    "city": "albuquerque",
    "total_crime_incidents": 0,
    "murder": 0,
    "assault": 0,
    "drugs": 0,
    "burglary": 0,
    "vandalism": 0,
    "dui": 0,
    "sex_offenses": 0,
    "theft": 0,
    "animal_cruelty": 0,
    "other_offenses": 0
  },
  {
    "city": "tucson",
    "total_crime_incidents": 132399,
    "murder": 1104,
    "assault": 2190,
    "drugs": 5448,
    "burglary": 2919,
    "vandalism": 5822,
    "dui": 0,
    "sex_offenses": 1215,
    "theft": 951,
    "animal_cruelty": 52,
    "other_offenses": 48825
  },
  {
    "city": "fresno",
    "total_crime_incidents": 59486,
    "murder": 14,
    "assault": 368,
    "drugs": 709,
    "burglary": 3738,
    "vandalism": 990,
    "dui": 0,
    "sex_offenses": 0,
    "theft": 286,
    "animal_cruelty": 0,
    "other_offenses": 7855
  },
  {
    "city": "sacramento",
    "total_crime_incidents": 2,
    "murder": 0,
    "assault": 0,
    "drugs": 0,
    "burglary": 0,
    "vandalism": 0,
    "dui": 0,
    "sex_offenses": 0,
    "theft": 0,
    "animal_cruelty": 0,
    "other_offenses": 1
  },
  {
    "city": "long beach",
    "total_crime_incidents": 11609,
    "murder": 19,
    "assault": 617,
    "drugs": 0,
    "burglary": 808,
    "vandalism": 1015,
    "dui": 0,
    "sex_offenses": 11,
    "theft": 0,
    "animal_cruelty": 1,
    "other_offenses": 775
  },
  {
    "city": "kansas city",
    "total_crime_incidents": 34232,
    "murder": 352,
    "assault": 1414,
    "drugs": 1326,
    "burglary": 1750,
    "vandalism": 2347,
    "dui": 0,
    "sex_offenses": 101,
    "theft": 1235,
    "animal_cruelty": 6,
    "other_offenses": 7028
  },
  {
    "city": "mesa",
    "total_crime_incidents": 1097,
    "murder": 3,
    "assault": 98,
    "drugs": 88,
    "burglary": 137,
    "vandalism": 0,
    "dui": 0,
    "sex_offenses": 1,
    "theft": 0,
    "animal_cruelty": 0,
    "other_offenses": 1
  },
  {
    "city": "virginia beach",
    "total_crime_incidents": 0,
    "murder": 0,
    "assault": 0,
    "drugs": 0,
    "burglary": 0,
    "vandalism": 0,
    "dui": 0,
    "sex_offenses": 0,
    "theft": 0,
    "animal_cruelty": 0,
    "other_offenses": 0
  },
  {
    "city": "atlanta",
    "total_crime_incidents": 36461,
    "murder": 118,
    "assault": 2156,
    "drugs": 146,
    "burglary": 3553,
    "vandalism": 466,
    "dui": 0,
    "sex_offenses": 24,
    "theft": 0,
    "animal_cruelty": 0,
    "other_offenses": 2780
  },
  {
    "city": "colorado springs",
    "total_crime_incidents": 0,
    "murder": 0,
    "assault": 0,
    "drugs": 0,
    "burglary": 0,
    "vandalism": 0,
    "dui": 0,
    "sex_offenses": 0,
    "theft": 0,
    "animal_cruelty": 0,
    "other_offenses": 0
  },
  {
    "city": "omaha",
    "total_crime_incidents": 18,
    "murder": 0,
    "assault": 1,
    "drugs": 4,
    "burglary": 0,
    "vandalism": 0,
    "dui": 6,
    "sex_offenses": 0,
    "theft": 0,
    "animal_cruelty": 0,
    "other_offenses": 1
  },
  {
    "city": "raleigh",
    "total_crime_incidents": 41910,
    "murder": 44,
    "assault": 920,
    "drugs": 7712,
    "burglary": 1428,
    "vandalism": 2915,
    "dui": 0,
    "sex_offenses": 118,
    "theft": 566,
    "animal_cruelty": 75,
    "other_offenses": 421
  },
  {
    "city": "miami",
    "total_crime_incidents": 722,
    "murder": 2,
    "assault": 38,
    "drugs": 24,
    "burglary": 197,
    "vandalism": 24,
    "dui": 0,
    "sex_offenses": 0,
    "theft": 2,
    "animal_cruelty": 0,
    "other_offenses": 94
  },
  {
    "city": "oakland",
    "total_crime_incidents": 114746,
    "murder": 2,
    "assault": 2703,
    "drugs": 3562,
    "burglary": 4780,
    "vandalism": 6653,
    "dui": 47,
    "sex_offenses": 156,
    "theft": 2286,
    "animal_cruelty": 0,
    "other_offenses": 35273
  },
  {
    "city": "minneapolis",
    "total_crime_incidents": 4,
    "murder": 0,
    "assault": 0,
    "drugs": 0,
    "burglary": 0,
    "vandalism": 0,
    "dui": 0,
    "sex_offenses": 0,
    "theft": 0,
    "animal_cruelty": 0,
    "other_offenses": 1
  },
  {
    "city": "tulsa",
    "total_crime_incidents": 0,
    "murder": 0,
    "assault": 0,
    "drugs": 0,
    "burglary": 0,
    "vandalism": 0,
    "dui": 0,
    "sex_offenses": 0,
    "theft": 0,
    "animal_cruelty": 0,
    "other_offenses": 0
  },
  {
    "city": "cleveland",
    "total_crime_incidents": 1,
    "murder": 0,
    "assault": 0,
    "drugs": 0,
    "burglary": 0,
    "vandalism": 0,
    "dui": 0,
    "sex_offenses": 0,
    "theft": 0,
    "animal_cruelty": 0,
    "other_offenses": 1
  },
  {
    "city": "wichita",
    "total_crime_incidents": 0,
    "murder": 0,
    "assault": 0,
    "drugs": 0,
    "burglary": 0,
    "vandalism": 0,
    "dui": 0,
    "sex_offenses": 0,
    "theft": 0,
    "animal_cruelty": 0,
    "other_offenses": 0
  },
  {
    "city": "arlington",
    "total_crime_incidents": 11776,
    "murder": 14,
    "assault": 529,
    "drugs": 651,
    "burglary": 852,
    "vandalism": 1233,
    "dui": 142,
    "sex_offenses": 69,
    "theft": 0,
    "animal_cruelty": 0,
    "other_offenses": 1265
  },
  {
    "city": "new orleans",
    "total_crime_incidents": 1,
    "murder": 0,
    "assault": 0,
    "drugs": 0,
    "burglary": 0,
    "vandalism": 1,
    "dui": 0,
    "sex_offenses": 0,
    "theft": 0,
    "animal_cruelty": 0,
    "other_offenses": 0
  },
  {
    "city": "bakersfield",
    "total_crime_incidents": 2,
    "murder": 0,
    "assault": 0,
    "drugs": 0,
    "burglary": 0,
    "vandalism": 0,
    "dui": 0,
    "sex_offenses": 0,
    "theft": 0,
    "animal_cruelty": 0,
    "other_offenses": 0
  },
  {
    "city": "tampa",
    "total_crime_incidents": 25,
    "murder": 0,
    "assault": 0,
    "drugs": 10,
    "burglary": 0,
    "vandalism": 1,
    "dui": 6,
    "sex_offenses": 0,
    "theft": 1,
    "animal_cruelty": 0,
    "other_offenses": 0
  },
  {
    "city": "honolulu",
    "total_crime_incidents": 0,
    "murder": 0,
    "assault": 0,
    "drugs": 0,
    "burglary": 0,
    "vandalism": 0,
    "dui": 0,
    "sex_offenses": 0,
    "theft": 0,
    "animal_cruelty": 0,
    "other_offenses": 0
  },
  {
    "city": "aurora",
    "total_crime_incidents": 99430,
    "murder": 84,
    "assault": 2931,
    "drugs": 3519,
    "burglary": 5731,
    "vandalism": 7376,
    "dui": 421,
    "sex_offenses": 374,
    "theft": 1972,
    "animal_cruelty": 21,
    "other_offenses": 25438
  },
  {
    "city": "anaheim",
    "total_crime_incidents": 6346,
    "murder": 0,
    "assault": 22,
    "drugs": 52,
    "burglary": 541,
    "vandalism": 278,
    "dui": 3,
    "sex_offenses": 0,
    "theft": 0,
    "animal_cruelty": 0,
    "other_offenses": 566
  },
  {
    "city": "santa ana",
    "total_crime_incidents": 18133,
    "murder": 0,
    "assault": 58,
    "drugs": 53,
    "burglary": 1157,
    "vandalism": 700,
    "dui": 3,
    "sex_offenses": 0,
    "theft": 0,
    "animal_cruelty": 0,
    "other_offenses": 1769
  },
  {
    "city": "st. louis",
    "total_crime_incidents": 59965,
    "murder": 206,
    "assault": 2985,
    "drugs": 1838,
    "burglary": 3365,
    "vandalism": 4276,
    "dui": 119,
    "sex_offenses": 235,
    "theft": 1821,
    "animal_cruelty": 0,
    "other_offenses": 13517
  },
  {
    "city": "riverside",
    "total_crime_incidents": 0,
    "murder": 0,
    "assault": 0,
    "drugs": 0,
    "burglary": 0,
    "vandalism": 0,
    "dui": 0,
    "sex_offenses": 0,
    "theft": 0,
    "animal_cruelty": 0,
    "other_offenses": 0
  },
  {
    "city": "corpus christi",
    "total_crime_incidents": 0,
    "murder": 0,
    "assault": 0,
    "drugs": 0,
    "burglary": 0,
    "vandalism": 0,
    "dui": 0,
    "sex_offenses": 0,
    "theft": 0,
    "animal_cruelty": 0,
    "other_offenses": 0
  },
  {
    "city": "lexington-fayette",
    "total_crime_incidents": 0,
    "murder": 0,
    "assault": 0,
    "drugs": 0,
    "burglary": 0,
    "vandalism": 0,
    "dui": 0,
    "sex_offenses": 0,
    "theft": 0,
    "animal_cruelty": 0,
    "other_offenses": 0
  },
  {
    "city": "pittsburgh",
    "total_crime_incidents": 0,
    "murder": 0,
    "assault": 0,
    "drugs": 0,
    "burglary": 0,
    "vandalism": 0,
    "dui": 0,
    "sex_offenses": 0,
    "theft": 0,
    "animal_cruelty": 0,
    "other_offenses": 0
  },
  {
    "city": "anchorage",
    "total_crime_incidents": 0,
    "murder": 0,
    "assault": 0,
    "drugs": 0,
    "burglary": 0,
    "vandalism": 0,
    "dui": 0,
    "sex_offenses": 0,
    "theft": 0,
    "animal_cruelty": 0,
    "other_offenses": 0
  },
  {
    "city": "stockton",
    "total_crime_incidents": 2,
    "murder": 0,
    "assault": 0,
    "drugs": 0,
    "burglary": 0,
    "vandalism": 0,
    "dui": 0,
    "sex_offenses": 0,
    "theft": 0,
    "animal_cruelty": 0,
    "other_offenses": 1
  },
  {
    "city": "cincinnati",
    "total_crime_incidents": 0,
    "murder": 0,
    "assault": 0,
    "drugs": 0,
    "burglary": 0,
    "vandalism": 0,
    "dui": 0,
    "sex_offenses": 0,
    "theft": 0,
    "animal_cruelty": 0,
    "other_offenses": 0
  },
  {
    "city": "st. paul",
    "total_crime_incidents": 3,
    "murder": 0,
    "assault": 0,
    "drugs": 0,
    "burglary": 0,
    "vandalism": 0,
    "dui": 0,
    "sex_offenses": 0,
    "theft": 0,
    "animal_cruelty": 0,
    "other_offenses": 1
  },
  {
    "city": "toledo",
    "total_crime_incidents": 1,
    "murder": 0,
    "assault": 0,
    "drugs": 0,
    "burglary": 0,
    "vandalism": 0,
    "dui": 0,
    "sex_offenses": 0,
    "theft": 0,
    "animal_cruelty": 0,
    "other_offenses": 0
  },
  {
    "city": "greensboro",
    "total_crime_incidents": 0,
    "murder": 0,
    "assault": 0,
    "drugs": 0,
    "burglary": 0,
    "vandalism": 0,
    "dui": 0,
    "sex_offenses": 0,
    "theft": 0,
    "animal_cruelty": 0,
    "other_offenses": 0
  },
  {
    "city": "newark",
    "total_crime_incidents": 57496,
    "murder": 0,
    "assault": 190,
    "drugs": 0,
    "burglary": 1365,
    "vandalism": 3904,
    "dui": 699,
    "sex_offenses": 225,
    "theft": 4722,
    "animal_cruelty": 23,
    "other_offenses": 3531
  },
  {
    "city": "plano",
    "total_crime_incidents": 36374,
    "murder": 190,
    "assault": 253,
    "drugs": 1498,
    "burglary": 2409,
    "vandalism": 2258,
    "dui": 722,
    "sex_offenses": 0,
    "theft": 505,
    "animal_cruelty": 0,
    "other_offenses": 8749
  },
  {
    "city": "henderson",
    "total_crime_incidents": 0,
    "murder": 0,
    "assault": 0,
    "drugs": 0,
    "burglary": 0,
    "vandalism": 0,
    "dui": 0,
    "sex_offenses": 0,
    "theft": 0,
    "animal_cruelty": 0,
    "other_offenses": 0
  },
  {
    "city": "lincoln",
    "total_crime_incidents": 0,
    "murder": 0,
    "assault": 0,
    "drugs": 0,
    "burglary": 0,
    "vandalism": 0,
    "dui": 0,
    "sex_offenses": 0,
    "theft": 0,
    "animal_cruelty": 0,
    "other_offenses": 0
  },
  {
    "city": "buffalo",
    "total_crime_incidents": 0,
    "murder": 0,
    "assault": 0,
    "drugs": 0,
    "burglary": 0,
    "vandalism": 0,
    "dui": 0,
    "sex_offenses": 0,
    "theft": 0,
    "animal_cruelty": 0,
    "other_offenses": 0
  },
  {
    "city": "jersey city",
    "total_crime_incidents": 230412,
    "murder": 0,
    "assault": 1409,
    "drugs": 0,
    "burglary": 5692,
    "vandalism": 18659,
    "dui": 2279,
    "sex_offenses": 772,
    "theft": 15214,
    "animal_cruelty": 79,
    "other_offenses": 15814
  },
  {
    "city": "chula vista",
    "total_crime_incidents": 24141,
    "murder": 34,
    "assault": 680,
    "drugs": 2917,
    "burglary": 967,
    "vandalism": 2113,
    "dui": 1974,
    "sex_offenses": 63,
    "theft": 827,
    "animal_cruelty": 1,
    "other_offenses": 756
  },
  {
    "city": "fort wayne",
    "total_crime_incidents": 0,
    "murder": 0,
    "assault": 0,
    "drugs": 0,
    "burglary": 0,
    "vandalism": 0,
    "dui": 0,
    "sex_offenses": 0,
    "theft": 0,
    "animal_cruelty": 0,
    "other_offenses": 0
  },
  {
    "city": "orlando",
    "total_crime_incidents": 18259,
    "murder": 12,
    "assault": 1256,
    "drugs": 1947,
    "burglary": 1363,
    "vandalism": 1598,
    "dui": 0,
    "sex_offenses": 0,
    "theft": 417,
    "animal_cruelty": 0,
    "other_offenses": 19
  },
  {
    "city": "st. petersburg",
    "total_crime_incidents": 0,
    "murder": 0,
    "assault": 0,
    "drugs": 0,
    "burglary": 0,
    "vandalism": 0,
    "dui": 0,
    "sex_offenses": 0,
    "theft": 0,
    "animal_cruelty": 0,
    "other_offenses": 0
  },
  {
    "city": "chandler",
    "total_crime_incidents": 1451,
    "murder": 3,
    "assault": 79,
    "drugs": 119,
    "burglary": 192,
    "vandalism": 0,
    "dui": 0,
    "sex_offenses": 1,
    "theft": 0,
    "animal_cruelty": 0,
    "other_offenses": 0
  },
  {
    "city": "laredo",
    "total_crime_incidents": 0,
    "murder": 0,
    "assault": 0,
    "drugs": 0,
    "burglary": 0,
    "vandalism": 0,
    "dui": 0,
    "sex_offenses": 0,
    "theft": 0,
    "animal_cruelty": 0,
    "other_offenses": 0
  },
  {
    "city": "norfolk",
    "total_crime_incidents": 0,
    "murder": 0,
    "assault": 0,
    "drugs": 0,
    "burglary": 0,
    "vandalism": 0,
    "dui": 0,
    "sex_offenses": 0,
    "theft": 0,
    "animal_cruelty": 0,
    "other_offenses": 0
  },
  {
    "city": "durham",
    "total_crime_incidents": 1409,
    "murder": 0,
    "assault": 12,
    "drugs": 118,
    "burglary": 38,
    "vandalism": 78,
    "dui": 0,
    "sex_offenses": 2,
    "theft": 10,
    "animal_cruelty": 1,
    "other_offenses": 110
  },
  {
    "city": "madison",
    "total_crime_incidents": 0,
    "murder": 0,
    "assault": 0,
    "drugs": 0,
    "burglary": 0,
    "vandalism": 0,
    "dui": 0,
    "sex_offenses": 0,
    "theft": 0,
    "animal_cruelty": 0,
    "other_offenses": 0
  },
  {
    "city": "lubbock",
    "total_crime_incidents": 0,
    "murder": 0,
    "assault": 0,
    "drugs": 0,
    "burglary": 0,
    "vandalism": 0,
    "dui": 0,
    "sex_offenses": 0,
    "theft": 0,
    "animal_cruelty": 0,
    "other_offenses": 0
  },
  {
    "city": "irvine",
    "total_crime_incidents": 1716,
    "murder": 0,
    "assault": 4,
    "drugs": 26,
    "burglary": 85,
    "vandalism": 83,
    "dui": 1,
    "sex_offenses": 0,
    "theft": 0,
    "animal_cruelty": 0,
    "other_offenses": 194
  },
  {
    "city": "winston-salem",
    "total_crime_incidents": 1,
    "murder": 0,
    "assault": 0,
    "drugs": 0,
    "burglary": 0,
    "vandalism": 0,
    "dui": 0,
    "sex_offenses": 0,
    "theft": 0,
    "animal_cruelty": 0,
    "other_offenses": 1
  },
  {
    "city": "glendale",
    "total_crime_incidents": 47247,
    "murder": 87,
    "assault": 4073,
    "drugs": 5398,
    "burglary": 5833,
    "vandalism": 0,
    "dui": 0,
    "sex_offenses": 0,
    "theft": 0,
    "animal_cruelty": 0,
    "other_offenses": 3
  },
  {
    "city": "garland",
    "total_crime_incidents": 46904,
    "murder": 101,
    "assault": 328,
    "drugs": 1522,
    "burglary": 3625,
    "vandalism": 2674,
    "dui": 500,
    "sex_offenses": 0,
    "theft": 147,
    "animal_cruelty": 0,
    "other_offenses": 13342
  },
  {
    "city": "hialeah",
    "total_crime_incidents": 6803,
    "murder": 84,
    "assault": 140,
    "drugs": 44,
    "burglary": 457,
    "vandalism": 551,
    "dui": 13,
    "sex_offenses": 6,
    "theft": 79,
    "animal_cruelty": 0,
    "other_offenses": 919
  },
  {
    "city": "reno",
    "total_crime_incidents": 0,
    "murder": 0,
    "assault": 0,
    "drugs": 0,
    "burglary": 0,
    "vandalism": 0,
    "dui": 0,
    "sex_offenses": 0,
    "theft": 0,
    "animal_cruelty": 0,
    "other_offenses": 0
  },
  {
    "city": "chesapeake",
    "total_crime_incidents": 0,
    "murder": 0,
    "assault": 0,
    "drugs": 0,
    "burglary": 0,
    "vandalism": 0,
    "dui": 0,
    "sex_offenses": 0,
    "theft": 0,
    "animal_cruelty": 0,
    "other_offenses": 0
  },
  {
    "city": "gilbert",
    "total_crime_incidents": 10,
    "murder": 0,
    "assault": 1,
    "drugs": 2,
    "burglary": 0,
    "vandalism": 0,
    "dui": 0,
    "sex_offenses": 1,
    "theft": 0,
    "animal_cruelty": 0,
    "other_offenses": 0
  },
  {
    "city": "baton rouge",
    "total_crime_incidents": 0,
    "murder": 0,
    "assault": 0,
    "drugs": 0,
    "burglary": 0,
    "vandalism": 0,
    "dui": 0,
    "sex_offenses": 0,
    "theft": 0,
    "animal_cruelty": 0,
    "other_offenses": 0
  },
  {
    "city": "irving",
    "total_crime_incidents": 60859,
    "murder": 44,
    "assault": 17,
    "drugs": 2004,
    "burglary": 3226,
    "vandalism": 3540,
    "dui": 737,
    "sex_offenses": 2,
    "theft": 0,
    "animal_cruelty": 0,
    "other_offenses": 22984
  },
  {
    "city": "scottsdale",
    "total_crime_incidents": 19851,
    "murder": 39,
    "assault": 1674,
    "drugs": 2041,
    "burglary": 2788,
    "vandalism": 0,
    "dui": 0,
    "sex_offenses": 1,
    "theft": 0,
    "animal_cruelty": 0,
    "other_offenses": 1
  },
  {
    "city": "north las vegas",
    "total_crime_incidents": 5,
    "murder": 0,
    "assault": 1,
    "drugs": 0,
    "burglary": 0,
    "vandalism": 0,
    "dui": 0,
    "sex_offenses": 0,
    "theft": 0,
    "animal_cruelty": 0,
    "other_offenses": 1
  },
  {
    "city": "fremont",
    "total_crime_incidents": 8018,
    "murder": 4,
    "assault": 65,
    "drugs": 146,
    "burglary": 1849,
    "vandalism": 532,
    "dui": 4,
    "sex_offenses": 10,
    "theft": 0,
    "animal_cruelty": 0,
    "other_offenses": 1361
  },
  {
    "city": "boise city",
    "total_crime_incidents": 0,
    "murder": 0,
    "assault": 0,
    "drugs": 0,
    "burglary": 0,
    "vandalism": 0,
    "dui": 0,
    "sex_offenses": 0,
    "theft": 0,
    "animal_cruelty": 0,
    "other_offenses": 0
  },
  {
    "city": "richmond",
    "total_crime_incidents": 0,
    "murder": 0,
    "assault": 0,
    "drugs": 0,
    "burglary": 0,
    "vandalism": 0,
    "dui": 0,
    "sex_offenses": 0,
    "theft": 0,
    "animal_cruelty": 0,
    "other_offenses": 0
  },
  {
    "city": "san bernardino",
    "total_crime_incidents": 0,
    "murder": 0,
    "assault": 0,
    "drugs": 0,
    "burglary": 0,
    "vandalism": 0,
    "dui": 0,
    "sex_offenses": 0,
    "theft": 0,
    "animal_cruelty": 0,
    "other_offenses": 0
  }
]