{
    "Air pollution - particulate matter": "6.5",
    "Limited access to healthy foods": "63.1",
    "Frequent mental distress": "14.3",
    "Smoking": "17.1",
    "Diabetes": "8.7",
    "Walkability": "42.7",
    "Opioid overdose deaths": "22.2",
    "Life expectancy": "78.5",
    "Obesity": "26.9",
    "Cardiovascular disease deaths": "207.1",
    "City": "Albuquerque",
    "Lead exposure risk index": "5"
}