{
    "Air pollution - particulate matter": "8.8",
    "Limited access to healthy foods": "75",
    "Frequent mental distress": "10.6",
    "Smoking": "13.3",
    "Diabetes": "7.6",
    "Walkability": "28",
    "Opioid overdose deaths": "4.1",
    "Life expectancy": "81.6",
    "Obesity": "28.6",
    "Cardiovascular disease deaths": "215.5",
    "City": "Allen",
    "Lead exposure risk index": "1"
}