{
    "Air pollution - particulate matter": "7.8",
    "Limited access to healthy foods": "93.6",
    "Frequent mental distress": "14.1",
    "Smoking": "16.2",
    "Diabetes": "11.9",
    "Walkability": "12.4",
    "Opioid overdose deaths": "",
    "Life expectancy": "76.6",
    "Obesity": "30.9",
    "Cardiovascular disease deaths": "285.6",
    "City": "Apple Valley",
    "Lead exposure risk index": "3"
}