{
    "Air pollution - particulate matter": "6.4",
    "Limited access to healthy foods": "67.3",
    "Frequent mental distress": "14.8",
    "Smoking": "15.4",
    "Diabetes": "8.3",
    "Walkability": "30.9",
    "Opioid overdose deaths": "10.8",
    "Life expectancy": "78.8",
    "Obesity": "25.3",
    "Cardiovascular disease deaths": "240.5",
    "City": "Auburn",
    "Lead exposure risk index": "3"
}