{
    "Air pollution - particulate matter": "11.9",
    "Limited access to healthy foods": "47.2",
    "Frequent mental distress": "13.1",
    "Smoking": "13.7",
    "Diabetes": "11.1",
    "Walkability": "50.3",
    "Opioid overdose deaths": "",
    "Life expectancy": "81.3",
    "Obesity": "25.3",
    "Cardiovascular disease deaths": "187.6",
    "City": "Baldwin Park",
    "Lead exposure risk index": "7"
}