{
    "Air pollution - particulate matter": "5.5",
    "Limited access to healthy foods": "61.3",
    "Frequent mental distress": "14.6",
    "Smoking": "15.2",
    "Diabetes": "7.4",
    "Walkability": "48.6",
    "Opioid overdose deaths": "11.7",
    "Life expectancy": "81",
    "Obesity": "29.1",
    "Cardiovascular disease deaths": "176.8",
    "City": "Bellingham",
    "Lead exposure risk index": "7"
}