{
    "Air pollution - particulate matter": "6.2",
    "Limited access to healthy foods": "64.8",
    "Frequent mental distress": "9.5",
    "Smoking": "8.4",
    "Diabetes": "6.8",
    "Walkability": "39.7",
    "Opioid overdose deaths": "4.5",
    "Life expectancy": "84.1",
    "Obesity": "18",
    "Cardiovascular disease deaths": "107.3",
    "City": "Bellevue",
    "Lead exposure risk index": "2"
}