{
    "Air pollution - particulate matter": "10.2",
    "Limited access to healthy foods": "51",
    "Frequent mental distress": "14.9",
    "Smoking": "20.1",
    "Diabetes": "10.4",
    "Walkability": "59.4",
    "Opioid overdose deaths": "19.7",
    "Life expectancy": "78.7",
    "Obesity": "32.9",
    "Cardiovascular disease deaths": "184.4",
    "City": "Bethlehem",
    "Lead exposure risk index": "8"
}