{
    "Air pollution - particulate matter": "9.6",
    "Limited access to healthy foods": "78.9",
    "Frequent mental distress": "11.8",
    "Smoking": "16",
    "Diabetes": "9.4",
    "Walkability": "32.6",
    "Opioid overdose deaths": "6.5",
    "Life expectancy": "80.1",
    "Obesity": "33.7",
    "Cardiovascular disease deaths": "192.1",
    "City": "Bolingbrook",
    "Lead exposure risk index": "2"
}