{
    "Air pollution - particulate matter": "7.3",
    "Limited access to healthy foods": "79.5",
    "Frequent mental distress": "10.7",
    "Smoking": "16.4",
    "Diabetes": "7.3",
    "Walkability": "24.3",
    "Opioid overdose deaths": "9.5",
    "Life expectancy": "79.1",
    "Obesity": "26.5",
    "Cardiovascular disease deaths": "154.5",
    "City": "Brooklyn Park",
    "Lead exposure risk index": "2"
}