{
    "Air pollution - particulate matter": "11.5",
    "Limited access to healthy foods": "49.4",
    "Frequent mental distress": "11.1",
    "Smoking": "12.1",
    "Diabetes": "11.7",
    "Walkability": "52.7",
    "Opioid overdose deaths": "",
    "Life expectancy": "79.9",
    "Obesity": "23.3",
    "Cardiovascular disease deaths": "213.7",
    "City": "Carson",
    "Lead exposure risk index": "4"
}