{
    "Air pollution - particulate matter": "8.2",
    "Limited access to healthy foods": "75.9",
    "Frequent mental distress": "11.8",
    "Smoking": "18.6",
    "Diabetes": "8.5",
    "Walkability": "35.2",
    "Opioid overdose deaths": "10",
    "Life expectancy": "79.6",
    "Obesity": "33.9",
    "Cardiovascular disease deaths": "183.9",
    "City": "Cedar Rapids",
    "Lead exposure risk index": "5"
}