{
    "Air pollution - particulate matter": "8.2",
    "Limited access to healthy foods": "78.1",
    "Frequent mental distress": "16",
    "Smoking": "21.4",
    "Diabetes": "14.7",
    "Walkability": "31.9",
    "Opioid overdose deaths": "71.4",
    "Life expectancy": "75.9",
    "Obesity": "38.7",
    "Cardiovascular disease deaths": "231.8",
    "City": "Charleston",
    "Lead exposure risk index": "9"
}