{
    "Air pollution - particulate matter": "4.8",
    "Limited access to healthy foods": "78.4",
    "Frequent mental distress": "11.5",
    "Smoking": "18.3",
    "Diabetes": "8.7",
    "Walkability": "38.3",
    "Opioid overdose deaths": "6",
    "Life expectancy": "80.7",
    "Obesity": "29.2",
    "Cardiovascular disease deaths": "185.7",
    "City": "Cheyenne",
    "Lead exposure risk index": "4"
}