{
    "Air pollution - particulate matter": "10",
    "Limited access to healthy foods": "15.7",
    "Frequent mental distress": "15.1",
    "Smoking": "19.9",
    "Diabetes": "11.4",
    "Walkability": "72.7",
    "Opioid overdose deaths": "8.1",
    "Life expectancy": "77.9",
    "Obesity": "35.1",
    "Cardiovascular disease deaths": "187.4",
    "City": "Cicero",
    "Lead exposure risk index": "10"
}