{
    "Air pollution - particulate matter": "7.7",
    "Limited access to healthy foods": "75.3",
    "Frequent mental distress": "12",
    "Smoking": "15.9",
    "Diabetes": "7.8",
    "Walkability": "37.6",
    "Opioid overdose deaths": "17.5",
    "Life expectancy": "81.4",
    "Obesity": "23.3",
    "Cardiovascular disease deaths": "138.3",
    "City": "Danbury",
    "Lead exposure risk index": "6"
}