{
    "Air pollution - particulate matter": "7.3",
    "Limited access to healthy foods": "71.4",
    "Frequent mental distress": "12.8",
    "Smoking": "15.3",
    "Diabetes": "8.5",
    "Walkability": "28.6",
    "Opioid overdose deaths": "12.1",
    "Life expectancy": "80.7",
    "Obesity": "23.8",
    "Cardiovascular disease deaths": "186.2",
    "City": "Davie",
    "Lead exposure risk index": "2"
}