{
    "Air pollution - particulate matter": "8.5",
    "Limited access to healthy foods": "79.5",
    "Frequent mental distress": "14.8",
    "Smoking": "21.7",
    "Diabetes": "12.4",
    "Walkability": "32.2",
    "Opioid overdose deaths": "17",
    "Life expectancy": "76.4",
    "Obesity": "37.8",
    "Cardiovascular disease deaths": "194.3",
    "City": "Decatur",
    "Lead exposure risk index": "9"
}