{
    "Air pollution - particulate matter": "7.1",
    "Limited access to healthy foods": "80.1",
    "Frequent mental distress": "15.2",
    "Smoking": "22",
    "Diabetes": "11.9",
    "Walkability": "15.3",
    "Opioid overdose deaths": "15.8",
    "Life expectancy": "78.2",
    "Obesity": "33.4",
    "Cardiovascular disease deaths": "209.8",
    "City": "Deltona",
    "Lead exposure risk index": "3"
}