{
    "Air pollution - particulate matter": -999,
    "Obesity": -999,
    "Frequent mental distress": -999,
    "Smoking": -999,
    "Diabetes": -999,
    "Walkability": -999,
    "Opioid overdose deaths": -999,
    "Life expectancy": -999,
    "Limited access to healthy foods": -999,
    "Cardiovascular disease deaths": -999,
    "City": "Eau Claire",
    "Lead exposure risk index": -999
}