{
    "Air pollution - particulate matter": "8.2",
    "Limited access to healthy foods": "77.4",
    "Frequent mental distress": "14.3",
    "Smoking": "14.7",
    "Diabetes": "13.4",
    "Walkability": "29.1",
    "Opioid overdose deaths": "",
    "Life expectancy": "80.6",
    "Obesity": "41.6",
    "Cardiovascular disease deaths": "279.7",
    "City": "Edinburg",
    "Lead exposure risk index": "6"
}