{
    "Air pollution - particulate matter": "8.8",
    "Limited access to healthy foods": "52.1",
    "Frequent mental distress": "13.8",
    "Smoking": "15.5",
    "Diabetes": "9.8",
    "Walkability": "41.5",
    "Opioid overdose deaths": "8.8",
    "Life expectancy": "80",
    "Obesity": "25.4",
    "Cardiovascular disease deaths": "229.2",
    "City": "Escondido",
    "Lead exposure risk index": "4"
}