{
    "Air pollution - particulate matter": "6.5",
    "Limited access to healthy foods": "58.8",
    "Frequent mental distress": "15.7",
    "Smoking": "16.7",
    "Diabetes": "7.2",
    "Walkability": "44.7",
    "Opioid overdose deaths": "15.7",
    "Life expectancy": "79.7",
    "Obesity": "26.9",
    "Cardiovascular disease deaths": "150.6",
    "City": "Eugene",
    "Lead exposure risk index": "6"
}