{
    "Air pollution - particulate matter": "7.7",
    "Limited access to healthy foods": "67.6",
    "Frequent mental distress": "13",
    "Smoking": "15.1",
    "Diabetes": "9.4",
    "Walkability": "35",
    "Opioid overdose deaths": "3",
    "Life expectancy": "79",
    "Obesity": "27.9",
    "Cardiovascular disease deaths": "203",
    "City": "Fairfield",
    "Lead exposure risk index": "3"
}