{
    "Air pollution - particulate matter": "5.8",
    "Limited access to healthy foods": "71.1",
    "Frequent mental distress": "11.3",
    "Smoking": "18.1",
    "Diabetes": "7",
    "Walkability": "44",
    "Opioid overdose deaths": "9.1",
    "Life expectancy": "80.8",
    "Obesity": "29.6",
    "Cardiovascular disease deaths": "141.4",
    "City": "Fargo",
    "Lead exposure risk index": "4"
}