{
    "Air pollution - particulate matter": "6.7",
    "Limited access to healthy foods": "73.1",
    "Frequent mental distress": "12.7",
    "Smoking": "14.6",
    "Diabetes": "5.1",
    "Walkability": "36.5",
    "Opioid overdose deaths": "8.4",
    "Life expectancy": "80.8",
    "Obesity": "21.2",
    "Cardiovascular disease deaths": "161.1",
    "City": "Fort Collins",
    "Lead exposure risk index": "4"
}