{
    "Air pollution - particulate matter": "7.7",
    "Limited access to healthy foods": "73.3",
    "Frequent mental distress": "16.6",
    "Smoking": "17.5",
    "Diabetes": "7",
    "Walkability": "34.1",
    "Opioid overdose deaths": "7.3",
    "Life expectancy": "77.6",
    "Obesity": "28.5",
    "Cardiovascular disease deaths": "214.7",
    "City": "Gainesville",
    "Lead exposure risk index": "8"
}