{
    "Air pollution - particulate matter": "11",
    "Limited access to healthy foods": "24.8",
    "Frequent mental distress": "12",
    "Smoking": "13.6",
    "Diabetes": "9.3",
    "Walkability": "68.9",
    "Opioid overdose deaths": "3",
    "Life expectancy": "82.4",
    "Obesity": "22.1",
    "Cardiovascular disease deaths": "180.9",
    "City": "Glendale",
    "Lead exposure risk index": "8"
}