{
    "Air pollution - particulate matter": "8.8",
    "Limited access to healthy foods": "77.5",
    "Frequent mental distress": "13.7",
    "Smoking": "17.4",
    "Diabetes": "10.7",
    "Walkability": "31.8",
    "Opioid overdose deaths": "6.3",
    "Life expectancy": "77.9",
    "Obesity": "33.3",
    "Cardiovascular disease deaths": "211.8",
    "City": "Grand Prairie",
    "Lead exposure risk index": "3"
}