{
    "Air pollution - particulate matter": "7.6",
    "Limited access to healthy foods": "72.7",
    "Frequent mental distress": "13.5",
    "Smoking": "19.7",
    "Diabetes": "8.6",
    "Walkability": "41",
    "Opioid overdose deaths": "11.7",
    "Life expectancy": "",
    "Obesity": "34.6",
    "Cardiovascular disease deaths": "241.9",
    "City": "Green Bay",
    "Lead exposure risk index": "7"
}