{
    "Air pollution - particulate matter": "8.4",
    "Limited access to healthy foods": "69.8",
    "Frequent mental distress": "14",
    "Smoking": "16.9",
    "Diabetes": "7.7",
    "Walkability": "22.8",
    "Opioid overdose deaths": "8.5",
    "Life expectancy": "78.4",
    "Obesity": "30.9",
    "Cardiovascular disease deaths": "164.8",
    "City": "Greeley",
    "Lead exposure risk index": "5"
}