{
    "Air pollution - particulate matter": "8.3",
    "Limited access to healthy foods": "87.8",
    "Frequent mental distress": "16",
    "Smoking": "24.9",
    "Diabetes": "12.6",
    "Walkability": "23.2",
    "Opioid overdose deaths": "9.2",
    "Life expectancy": "74.2",
    "Obesity": "36.6",
    "Cardiovascular disease deaths": "352.5",
    "City": "Gulfport",
    "Lead exposure risk index": "6"
}