{
    "Air pollution - particulate matter": "8.2",
    "Limited access to healthy foods": "40.3",
    "Frequent mental distress": "12",
    "Smoking": "13.7",
    "Diabetes": "9.2",
    "Walkability": "53.2",
    "Opioid overdose deaths": "3.4",
    "Life expectancy": "79.8",
    "Obesity": "24.2",
    "Cardiovascular disease deaths": "216",
    "City": "Hayward",
    "Lead exposure risk index": "4"
}