{
    "Air pollution - particulate matter": "7.4",
    "Limited access to healthy foods": "67.7",
    "Frequent mental distress": "12.1",
    "Smoking": "17.7",
    "Diabetes": "9.6",
    "Walkability": "29.6",
    "Opioid overdose deaths": "13.2",
    "Life expectancy": "78.8",
    "Obesity": "24.9",
    "Cardiovascular disease deaths": "174.5",
    "City": "Henderson",
    "Lead exposure risk index": "1"
}