{
    "Air pollution - particulate matter": "7",
    "Limited access to healthy foods": "61.5",
    "Frequent mental distress": "13.2",
    "Smoking": "15",
    "Diabetes": "7",
    "Walkability": "44.9",
    "Opioid overdose deaths": "6.2",
    "Life expectancy": "81.3",
    "Obesity": "28.2",
    "Cardiovascular disease deaths": "139.7",
    "City": "Hillsboro",
    "Lead exposure risk index": "2"
}