{
    "Air pollution - particulate matter": "8.2",
    "Limited access to healthy foods": "61.6",
    "Frequent mental distress": "13.2",
    "Smoking": "15.3",
    "Diabetes": "5.9",
    "Walkability": "43.1",
    "Opioid overdose deaths": "7.3",
    "Life expectancy": "83",
    "Obesity": "29.4",
    "Cardiovascular disease deaths": "161.2",
    "City": "Iowa City",
    "Lead exposure risk index": "8"
}