{
    "Air pollution - particulate matter": "8.9",
    "Limited access to healthy foods": "59.1",
    "Frequent mental distress": "15.2",
    "Smoking": "17.7",
    "Diabetes": "9",
    "Walkability": "33.5",
    "Opioid overdose deaths": "10.3",
    "Life expectancy": "79.2",
    "Obesity": "33.4",
    "Cardiovascular disease deaths": "212.1",
    "City": "Kennewick",
    "Lead exposure risk index": "4"
}