{
    "Air pollution - particulate matter": "7.7",
    "Limited access to healthy foods": "86.3",
    "Frequent mental distress": "15",
    "Smoking": "19.1",
    "Diabetes": "9.7",
    "Walkability": "27.9",
    "Opioid overdose deaths": "5.4",
    "Life expectancy": "77.2",
    "Obesity": "37.2",
    "Cardiovascular disease deaths": "234.6",
    "City": "Killeen",
    "Lead exposure risk index": "3"
}