{
    "Air pollution - particulate matter": "8.5",
    "Limited access to healthy foods": "83.8",
    "Frequent mental distress": "11.6",
    "Smoking": "16.9",
    "Diabetes": "8",
    "Walkability": "21.1",
    "Opioid overdose deaths": "4.8",
    "Life expectancy": "80.9",
    "Obesity": "31.4",
    "Cardiovascular disease deaths": "164.5",
    "City": "League City",
    "Lead exposure risk index": "1"
}