{
    "Air pollution - particulate matter": "11.2",
    "Limited access to healthy foods": "31.8",
    "Frequent mental distress": "13.2",
    "Smoking": "14.2",
    "Diabetes": "10",
    "Walkability": "67.4",
    "Opioid overdose deaths": "3.8",
    "Life expectancy": "80.4",
    "Obesity": "25.2",
    "Cardiovascular disease deaths": "215.1",
    "City": "Los Angeles",
    "Lead exposure risk index": "8"
}