{
    "Air pollution - particulate matter": "6.1",
    "Limited access to healthy foods": "43.1",
    "Frequent mental distress": "14.7",
    "Smoking": "18.7",
    "Diabetes": "10.8",
    "Walkability": "67.6",
    "Opioid overdose deaths": "53",
    "Life expectancy": "78.4",
    "Obesity": "30",
    "Cardiovascular disease deaths": "193.9",
    "City": "Lynn",
    "Lead exposure risk index": "10"
}