{
    "Air pollution - particulate matter": "5.5",
    "Limited access to healthy foods": "77.4",
    "Frequent mental distress": "14.2",
    "Smoking": "19.1",
    "Diabetes": "9.1",
    "Walkability": "48.4",
    "Opioid overdose deaths": "68.8",
    "Life expectancy": "77.6",
    "Obesity": "31.1",
    "Cardiovascular disease deaths": "188.8",
    "City": "Manchester",
    "Lead exposure risk index": "8"
}