{
    "Air pollution - particulate matter": "8.4",
    "Limited access to healthy foods": "86.7",
    "Frequent mental distress": "13.8",
    "Smoking": "14.5",
    "Diabetes": "15.1",
    "Walkability": "33.3",
    "Opioid overdose deaths": "",
    "Life expectancy": "80.2",
    "Obesity": "41.4",
    "Cardiovascular disease deaths": "217.5",
    "City": "Mission",
    "Lead exposure risk index": "5"
}