{
    "Air pollution - particulate matter": "9.4",
    "Limited access to healthy foods": "78.6",
    "Frequent mental distress": "14.5",
    "Smoking": "20.4",
    "Diabetes": "8.4",
    "Walkability": "23.9",
    "Opioid overdose deaths": "16.4",
    "Life expectancy": "77.7",
    "Obesity": "33.2",
    "Cardiovascular disease deaths": "277.2",
    "City": "Murfreesboro",
    "Lead exposure risk index": "3"
}