{
    "Air pollution - particulate matter": "7.2",
    "Limited access to healthy foods": "46.6",
    "Frequent mental distress": "15.5",
    "Smoking": "18",
    "Diabetes": "10.7",
    "Walkability": "46.6",
    "Opioid overdose deaths": "46.5",
    "Life expectancy": "76.6",
    "Obesity": "31.6",
    "Cardiovascular disease deaths": "187.6",
    "City": "New Britain",
    "Lead exposure risk index": "9"
}