{
    "Air pollution - particulate matter": "10.2",
    "Limited access to healthy foods": "54.8",
    "Frequent mental distress": "9",
    "Smoking": "8.5",
    "Diabetes": "7.3",
    "Walkability": "62.5",
    "Opioid overdose deaths": "8.9",
    "Life expectancy": "83",
    "Obesity": "18.2",
    "Cardiovascular disease deaths": "100.9",
    "City": "Newport Beach",
    "Lead exposure risk index": "2"
}