{
    "Air pollution - particulate matter": "8.2",
    "Limited access to healthy foods": "37.5",
    "Frequent mental distress": "12.6",
    "Smoking": "14.6",
    "Diabetes": "10.2",
    "Walkability": "72",
    "Opioid overdose deaths": "5.6",
    "Life expectancy": "79",
    "Obesity": "26.8",
    "Cardiovascular disease deaths": "174.6",
    "City": "Oakland",
    "Lead exposure risk index": "9"
}