{
    "Air pollution - particulate matter": "8.3",
    "Limited access to healthy foods": "64.7",
    "Frequent mental distress": "15.6",
    "Smoking": "14.7",
    "Diabetes": "9",
    "Walkability": "45.7",
    "Opioid overdose deaths": "26.5",
    "Life expectancy": "77",
    "Obesity": "33.8",
    "Cardiovascular disease deaths": "235.4",
    "City": "Ogden",
    "Lead exposure risk index": "9"
}