{
    "Air pollution - particulate matter": "8",
    "Limited access to healthy foods": "64.1",
    "Frequent mental distress": "12.3",
    "Smoking": "18.2",
    "Diabetes": "10.1",
    "Walkability": "45.1",
    "Opioid overdose deaths": "5.5",
    "Life expectancy": "78.2",
    "Obesity": "33.4",
    "Cardiovascular disease deaths": "172.1",
    "City": "Omaha",
    "Lead exposure risk index": "7"
}