{
    "Air pollution - particulate matter": "6.7",
    "Limited access to healthy foods": "91.1",
    "Frequent mental distress": "13.9",
    "Smoking": "19.9",
    "Diabetes": "12.4",
    "Walkability": "6.5",
    "Opioid overdose deaths": "15.5",
    "Life expectancy": "79.2",
    "Obesity": "29.4",
    "Cardiovascular disease deaths": "181.8",
    "City": "Palm Coast",
    "Lead exposure risk index": "2"
}