{
    "Air pollution - particulate matter": "6.5",
    "Limited access to healthy foods": "84.9",
    "Frequent mental distress": "15.2",
    "Smoking": "21.4",
    "Diabetes": "11.9",
    "Walkability": "12.7",
    "Opioid overdose deaths": "6.8",
    "Life expectancy": "78.4",
    "Obesity": "32.7",
    "Cardiovascular disease deaths": "202.8",
    "City": "Palm Bay",
    "Lead exposure risk index": "3"
}