{
    "Air pollution - particulate matter": "8.1",
    "Limited access to healthy foods": "75.8",
    "Frequent mental distress": "15",
    "Smoking": "16.6",
    "Diabetes": "10.3",
    "Walkability": "25.1",
    "Opioid overdose deaths": "4.6",
    "Life expectancy": "78.8",
    "Obesity": "28.5",
    "Cardiovascular disease deaths": "277.1",
    "City": "Palmdale",
    "Lead exposure risk index": "4"
}