{
    "Air pollution - particulate matter": "9.2",
    "Limited access to healthy foods": "57.9",
    "Frequent mental distress": "14.9",
    "Smoking": "18.7",
    "Diabetes": "11.7",
    "Walkability": "44.1",
    "Opioid overdose deaths": "7.6",
    "Life expectancy": "77.1",
    "Obesity": "34.2",
    "Cardiovascular disease deaths": "227.8",
    "City": "Pasadena",
    "Lead exposure risk index": "6"
}