{
    "Air pollution - particulate matter": "8.8",
    "Limited access to healthy foods": "71.3",
    "Frequent mental distress": "13.9",
    "Smoking": "19.8",
    "Diabetes": "10.9",
    "Walkability": "38.9",
    "Opioid overdose deaths": "22.6",
    "Life expectancy": "77.2",
    "Obesity": "36.4",
    "Cardiovascular disease deaths": "218.6",
    "City": "Peoria",
    "Lead exposure risk index": "8"
}