{
    "Air pollution - particulate matter": "7.4",
    "Limited access to healthy foods": "68.7",
    "Frequent mental distress": "14.1",
    "Smoking": "21.5",
    "Diabetes": "13.4",
    "Walkability": "36.9",
    "Opioid overdose deaths": "22.3",
    "Life expectancy": "73.8",
    "Obesity": "39",
    "Cardiovascular disease deaths": "236.6",
    "City": "Portsmouth",
    "Lead exposure risk index": "7"
}