{
    "Air pollution - particulate matter": "5.4",
    "Limited access to healthy foods": "77.3",
    "Frequent mental distress": "14.3",
    "Smoking": "18.9",
    "Diabetes": "11.8",
    "Walkability": "38.3",
    "Opioid overdose deaths": "21.4",
    "Life expectancy": "76",
    "Obesity": "31.3",
    "Cardiovascular disease deaths": "160.4",
    "City": "Pueblo",
    "Lead exposure risk index": "9"
}