{
    "Air pollution - particulate matter": "11.6",
    "Limited access to healthy foods": "53.5",
    "Frequent mental distress": "14.9",
    "Smoking": "15.9",
    "Diabetes": "11.5",
    "Walkability": "38",
    "Opioid overdose deaths": "",
    "Life expectancy": "78.9",
    "Obesity": "33.1",
    "Cardiovascular disease deaths": "254.8",
    "City": "Rialto",
    "Lead exposure risk index": "5"
}