{
    "Air pollution - particulate matter": "5.8",
    "Limited access to healthy foods": "38.8",
    "Frequent mental distress": "15.7",
    "Smoking": "16.8",
    "Diabetes": "10.9",
    "Walkability": "53.1",
    "Opioid overdose deaths": "4.3",
    "Life expectancy": "79.1",
    "Obesity": "27",
    "Cardiovascular disease deaths": "200.2",
    "City": "Salinas",
    "Lead exposure risk index": "6"
}