{
    "Air pollution - particulate matter": "6.3",
    "Limited access to healthy foods": "84.8",
    "Frequent mental distress": "13.4",
    "Smoking": "16.6",
    "Diabetes": "11.3",
    "Walkability": "31.8",
    "Opioid overdose deaths": "",
    "Life expectancy": "77.7",
    "Obesity": "34.3",
    "Cardiovascular disease deaths": "175.7",
    "City": "San Angelo",
    "Lead exposure risk index": "5"
}