{
    "Air pollution - particulate matter": "10.9",
    "Limited access to healthy foods": "55.8",
    "Frequent mental distress": "17",
    "Smoking": "18.9",
    "Diabetes": "13",
    "Walkability": "42",
    "Opioid overdose deaths": "4",
    "Life expectancy": "76.6",
    "Obesity": "35.1",
    "Cardiovascular disease deaths": "319.5",
    "City": "San Bernardino",
    "Lead exposure risk index": "9"
}