{
    "Air pollution - particulate matter": "10.6",
    "Limited access to healthy foods": "63.1",
    "Frequent mental distress": "10.2",
    "Smoking": "13.1",
    "Diabetes": "7",
    "Walkability": "27",
    "Opioid overdose deaths": "4.2",
    "Life expectancy": "81.9",
    "Obesity": "24.1",
    "Cardiovascular disease deaths": "46.7",
    "City": "Sandy Springs",
    "Lead exposure risk index": "2"
}