{
    "Air pollution - particulate matter": "8.4",
    "Limited access to healthy foods": "71.7",
    "Frequent mental distress": "14.4",
    "Smoking": "20.6",
    "Diabetes": "12.1",
    "Walkability": "43.1",
    "Opioid overdose deaths": "9.4",
    "Life expectancy": "76.2",
    "Obesity": "35.9",
    "Cardiovascular disease deaths": "284.7",
    "City": "Savannah",
    "Lead exposure risk index": "8"
}