{
    "Air pollution - particulate matter": "5.2",
    "Limited access to healthy foods": "87.5",
    "Frequent mental distress": "12.4",
    "Smoking": "10.2",
    "Diabetes": "9.2",
    "Walkability": "28.7",
    "Opioid overdose deaths": "22.1",
    "Life expectancy": "81.3",
    "Obesity": "25",
    "Cardiovascular disease deaths": "140.2",
    "City": "St. George",
    "Lead exposure risk index": "2"
}