{
    "Air pollution - particulate matter": "7.8",
    "Limited access to healthy foods": "74.5",
    "Frequent mental distress": "15.8",
    "Smoking": "24.3",
    "Diabetes": "10.3",
    "Walkability": "32.5",
    "Opioid overdose deaths": "5.2",
    "Life expectancy": "75.9",
    "Obesity": "34.4",
    "Cardiovascular disease deaths": "216.8",
    "City": "St. Joseph",
    "Lead exposure risk index": "9"
}