{
    "Air pollution - particulate matter": "7.5",
    "Limited access to healthy foods": "47.1",
    "Frequent mental distress": "12.4",
    "Smoking": "17.9",
    "Diabetes": "8.1",
    "Walkability": "58.9",
    "Opioid overdose deaths": "8.6",
    "Life expectancy": "78.3",
    "Obesity": "27.6",
    "Cardiovascular disease deaths": "166.8",
    "City": "St. Paul",
    "Lead exposure risk index": "9"
}