{
    "Air pollution - particulate matter": "7.3",
    "Limited access to healthy foods": "81.1",
    "Frequent mental distress": "13.1",
    "Smoking": "19.9",
    "Diabetes": "11.9",
    "Walkability": "15.5",
    "Opioid overdose deaths": "8.1",
    "Life expectancy": "76.5",
    "Obesity": "34.3",
    "Cardiovascular disease deaths": "210.3",
    "City": "Suffolk",
    "Lead exposure risk index": "3"
}