{
    "Air pollution - particulate matter": "7.9",
    "Limited access to healthy foods": "33.4",
    "Frequent mental distress": "8.4",
    "Smoking": "8.9",
    "Diabetes": "7.1",
    "Walkability": "43.2",
    "Opioid overdose deaths": "3.3",
    "Life expectancy": "83.2",
    "Obesity": "17",
    "Cardiovascular disease deaths": "133.4",
    "City": "Sunnyvale",
    "Lead exposure risk index": "2"
}