{
    "Air pollution - particulate matter": "9.5",
    "Limited access to healthy foods": "74.8",
    "Frequent mental distress": "9.9",
    "Smoking": "12.3",
    "Diabetes": "8.6",
    "Walkability": "28.3",
    "Opioid overdose deaths": "",
    "Life expectancy": "81.5",
    "Obesity": "22.7",
    "Cardiovascular disease deaths": "199.1",
    "City": "Troy",
    "Lead exposure risk index": "1"
}