{
    "Air pollution - particulate matter": "11.8",
    "Limited access to healthy foods": "64.6",
    "Frequent mental distress": "12",
    "Smoking": "12.8",
    "Diabetes": "9.6",
    "Walkability": "46.3",
    "Opioid overdose deaths": "",
    "Life expectancy": "80.5",
    "Obesity": "27.5",
    "Cardiovascular disease deaths": "228",
    "City": "Upland",
    "Lead exposure risk index": "4"
}