{
    "Air pollution - particulate matter": "7.4",
    "Limited access to healthy foods": "60.9",
    "Frequent mental distress": "12.7",
    "Smoking": "15.5",
    "Diabetes": "8.6",
    "Walkability": "36.1",
    "Opioid overdose deaths": "",
    "Life expectancy": "80.5",
    "Obesity": "28.3",
    "Cardiovascular disease deaths": "201",
    "City": "Vacaville",
    "Lead exposure risk index": "2"
}