{
    "Air pollution - particulate matter": "8",
    "Limited access to healthy foods": "60.9",
    "Frequent mental distress": "12.5",
    "Smoking": "14.7",
    "Diabetes": "11.3",
    "Walkability": "41.6",
    "Opioid overdose deaths": "4.8",
    "Life expectancy": "79.2",
    "Obesity": "27.7",
    "Cardiovascular disease deaths": "184.6",
    "City": "Vallejo",
    "Lead exposure risk index": "6"
}