{
    "Air pollution - particulate matter": "7.9",
    "Limited access to healthy foods": "75.8",
    "Frequent mental distress": "13",
    "Smoking": "22.2",
    "Diabetes": "10.6",
    "Walkability": "35.4",
    "Opioid overdose deaths": "6.1",
    "Life expectancy": "78.1",
    "Obesity": "36",
    "Cardiovascular disease deaths": "218.1",
    "City": "Waterloo",
    "Lead exposure risk index": "8"
}