{
    "Air pollution - particulate matter": "6.6",
    "Limited access to healthy foods": "59.2",
    "Frequent mental distress": "14.1",
    "Smoking": "19.3",
    "Diabetes": "11.6",
    "Walkability": "41.6",
    "Opioid overdose deaths": "35.8",
    "Life expectancy": "78.3",
    "Obesity": "27.4",
    "Cardiovascular disease deaths": "312",
    "City": "West Palm Beach",
    "Lead exposure risk index": "6"
}