{
    "Air pollution - particulate matter": "7.8",
    "Limited access to healthy foods": "65.4",
    "Frequent mental distress": "12.9",
    "Smoking": "12.2",
    "Diabetes": "6.2",
    "Walkability": "27.4",
    "Opioid overdose deaths": "16.6",
    "Life expectancy": "79.1",
    "Obesity": "26.5",
    "Cardiovascular disease deaths": "165.3",
    "City": "West Jordan",
    "Lead exposure risk index": "1"
}