{
    "Air pollution - particulate matter": "7.2",
    "Limited access to healthy foods": "82.9",
    "Frequent mental distress": "14.6",
    "Smoking": "19.6",
    "Diabetes": "11.7",
    "Walkability": "29.8",
    "Opioid overdose deaths": "4.1",
    "Life expectancy": "75.8",
    "Obesity": "37.5",
    "Cardiovascular disease deaths": "255.2",
    "City": "Wichita Falls",
    "Lead exposure risk index": "7"
}