{
    "Air pollution - particulate matter": "6.1",
    "Limited access to healthy foods": "52.5",
    "Frequent mental distress": "15.8",
    "Smoking": "18.9",
    "Diabetes": "9.7",
    "Walkability": "55.8",
    "Opioid overdose deaths": "39.4",
    "Life expectancy": "78.7",
    "Obesity": "30.1",
    "Cardiovascular disease deaths": "158.6",
    "City": "Worcester",
    "Lead exposure risk index": "10"
}