{
  "name": "Austin",
  "summary": "Mostly cloudy throughout the day.",
  "wind_speed": 5.37,
  "max_temp": 63.71,
  "min_temp": 39.17,
  "chance_rain": 53,
  "uv_index": 4,
  "visibility": 9.479,
  "ozone": 235.8,
  "air_pressure": 1013.3,
  "humidity": 0.76
}