{
    "city": "Albuquerque",
    "spring": {
        "temperature": 54.13468962392392,
        "uv": 1.845944721341187,
        "humidity": 0.375188038060715,
        "ozone": 311.43461712732176,
        "windSpeed": 8.133778885364757
    },
    "winter": {
        "temperature": 37.40796703296705,
        "uv": 0.6767399267399268,
        "humidity": 0.5429349816849809,
        "ozone": 286.0586538461541,
        "windSpeed": 6.638704212454212
    },
    "autumn": {
        "temperature": 62.448906178489764,
        "uv": 1.654004576659039,
        "humidity": 0.34694279176201387,
        "ozone": 279.6059954233409,
        "windSpeed": 6.251917620137296
    },
    "summer": {
        "temperature": 76.12430860805856,
        "uv": 2.7284798534798536,
        "humidity": 0.3188827838827839,
        "ozone": 305.6434065934073,
        "windSpeed": 7.149592490842498
    }
}