{
    "city": "Anchorage",
    "spring": {
        "temperature": 37.295872224739384,
        "uv": 0.5097417308563661,
        "humidity": 0.6690348889895756,
        "ozone": 393.68296329859515,
        "windSpeed": 4.510589034888998
    },
    "winter": {
        "temperature": 22.13859890109889,
        "uv": 0.0,
        "humidity": 0.780228937728932,
        "ozone": 386.21465201465156,
        "windSpeed": 4.923617216117219
    },
    "autumn": {
        "temperature": 45.51978947368422,
        "uv": 0.34874141876430204,
        "humidity": 0.7398077803203623,
        "ozone": 315.3609153318079,
        "windSpeed": 4.8209290617848914
    },
    "summer": {
        "temperature": 62.43254578754583,
        "uv": 1.4052197802197801,
        "humidity": 0.6438736263736258,
        "ozone": 337.94734432234446,
        "windSpeed": 4.967902930402928
    }
}