{
    "city": "Atlanta",
    "spring": {
        "temperature": 61.431848663343786,
        "uv": 1.7729950158586316,
        "humidity": 0.6483189850475777,
        "ozone": 296.1235613955596,
        "windSpeed": 5.185101948346168
    },
    "winter": {
        "temperature": 49.71700549450548,
        "uv": 0.679945054945055,
        "humidity": 0.6686355311355322,
        "ozone": 269.5338827838833,
        "windSpeed": 4.738576007326008
    },
    "autumn": {
        "temperature": 69.92264988558347,
        "uv": 1.5093821510297483,
        "humidity": 0.6229977116704811,
        "ozone": 280.7296567505719,
        "windSpeed": 3.390439359267737
    },
    "summer": {
        "temperature": 80.19006868131872,
        "uv": 2.4015567765567765,
        "humidity": 0.6872985347985355,
        "ozone": 305.07811355311355,
        "windSpeed": 4.08945054945055
    }
}