{
    "city": "Chandler",
    "spring": {
        "temperature": 68.52606431159408,
        "uv": 1.8451086956521738,
        "humidity": 0.3271286231884062,
        "ozone": 312.59787137681104,
        "windSpeed": 4.798220108695652
    },
    "winter": {
        "temperature": 54.3361355311356,
        "uv": 0.7065018315018315,
        "humidity": 0.5548351648351663,
        "ozone": 285.77600732600774,
        "windSpeed": 3.8648168498168523
    },
    "autumn": {
        "temperature": 80.12575091575087,
        "uv": 1.6391941391941391,
        "humidity": 0.2799816849816856,
        "ozone": 282.2743131868136,
        "windSpeed": 4.319940476190479
    },
    "summer": {
        "temperature": 91.26848443223426,
        "uv": 2.63003663003663,
        "humidity": 0.20168040293040304,
        "ozone": 310.25293040293036,
        "windSpeed": 4.728965201465206
    }
}