{
    "city": "Chicago",
    "spring": {
        "temperature": 41.05242863615768,
        "uv": 1.1826008155867693,
        "humidity": 0.7098414136837332,
        "ozone": 343.476529225193,
        "windSpeed": 7.142011780697764
    },
    "winter": {
        "temperature": 29.462861721611713,
        "uv": 0.29945054945054944,
        "humidity": 0.7532738095238063,
        "ozone": 319.931043956044,
        "windSpeed": 7.684258241758244
    },
    "autumn": {
        "temperature": 56.47065903890156,
        "uv": 1.0352402745995424,
        "humidity": 0.7609244851258589,
        "ozone": 291.1909839816939,
        "windSpeed": 7.018897025171631
    },
    "summer": {
        "temperature": 70.59510989010984,
        "uv": 2.072802197802198,
        "humidity": 0.7613415750915764,
        "ozone": 319.5479395604399,
        "windSpeed": 5.641291208791193
    }
}