{
    "city": "Henderson",
    "spring": {
        "temperature": 66.17709560489358,
        "uv": 1.6846397825101949,
        "humidity": 0.28955595831445435,
        "ozone": 327.65940190303473,
        "windSpeed": 5.917349342999543
    },
    "winter": {
        "temperature": 49.16774267399272,
        "uv": 0.570054945054945,
        "humidity": 0.49341575091575024,
        "ozone": 297.69487179487254,
        "windSpeed": 4.849056776556783
    },
    "autumn": {
        "temperature": 74.56116247139579,
        "uv": 1.5189931350114416,
        "humidity": 0.12482837528604147,
        "ozone": 283.5850800915335,
        "windSpeed": 5.748846681922209
    },
    "summer": {
        "temperature": 89.40057234432231,
        "uv": 2.5558608058608057,
        "humidity": 0.12850732600732584,
        "ozone": 320.8880494505492,
        "windSpeed": 6.739908424908428
    }
}