{
    "city": "Houston",
    "spring": {
        "temperature": 67.58136837335742,
        "uv": 1.8232895333031265,
        "humidity": 0.7408291798821968,
        "ozone": 282.51490711372963,
        "windSpeed": 7.49733574988673
    },
    "winter": {
        "temperature": 58.46407051282044,
        "uv": 0.8708791208791209,
        "humidity": 0.7221382783882806,
        "ozone": 260.0010531135528,
        "windSpeed": 6.716648351648345
    },
    "autumn": {
        "temperature": 74.27599999999994,
        "uv": 1.651258581235698,
        "humidity": 0.7487231121281487,
        "ozone": 274.61629290617867,
        "windSpeed": 5.736773455377559
    },
    "summer": {
        "temperature": 84.48881868131885,
        "uv": 2.467032967032967,
        "humidity": 0.7568681318681363,
        "ozone": 295.14047619047693,
        "windSpeed": 6.392307692307697
    }
}