{
    "city": "Irving",
    "spring": {
        "temperature": 62.091708201178214,
        "uv": 1.7063887630267331,
        "humidity": 0.6706071590394208,
        "ozone": 297.0772541912097,
        "windSpeed": 8.5422066153149
    },
    "winter": {
        "temperature": 50.77129120879121,
        "uv": 0.7211538461538461,
        "humidity": 0.6791025641025669,
        "ozone": 272.6659798534801,
        "windSpeed": 7.564299450549461
    },
    "autumn": {
        "temperature": 72.60662242562935,
        "uv": 1.5624713958810068,
        "humidity": 0.6311121281464525,
        "ozone": 280.3275514874139,
        "windSpeed": 7.392704805491989
    },
    "summer": {
        "temperature": 84.01212454212464,
        "uv": 2.482142857142857,
        "humidity": 0.6634523809523826,
        "ozone": 302.08585164835165,
        "windSpeed": 7.930260989010996
    }
}