{
    "city": "Kansas City",
    "spring": {
        "temperature": 50.201889442682386,
        "uv": 1.336202990484821,
        "humidity": 0.657911191662893,
        "ozone": 330.3942455822387,
        "windSpeed": 6.272442229270513
    },
    "winter": {
        "temperature": 35.16206501831502,
        "uv": 0.43131868131868134,
        "humidity": 0.7167765567765597,
        "ozone": 305.362271062271,
        "windSpeed": 5.922596153846159
    },
    "autumn": {
        "temperature": 62.052237986270136,
        "uv": 1.2018306636155607,
        "humidity": 0.6618032036613263,
        "ozone": 288.6977574370709,
        "windSpeed": 5.331816933638434
    },
    "summer": {
        "temperature": 77.99633241758261,
        "uv": 2.24496336996337,
        "humidity": 0.662930402930403,
        "ozone": 313.2883241758232,
        "windSpeed": 4.799047619047622
    }
}