{
    "city": "Laredo",
    "spring": {
        "temperature": 71.72269596737647,
        "uv": 1.9392840960579973,
        "humidity": 0.6463978251019493,
        "ozone": 276.71789759855005,
        "windSpeed": 9.757050294517418
    },
    "winter": {
        "temperature": 60.64293956043957,
        "uv": 1.0183150183150182,
        "humidity": 0.6586538461538496,
        "ozone": 254.6676739926737,
        "windSpeed": 7.201451465201468
    },
    "autumn": {
        "temperature": 78.05729977116704,
        "uv": 1.7789473684210526,
        "humidity": 0.6340823798626999,
        "ozone": 269.87949656750624,
        "windSpeed": 9.161597254004551
    },
    "summer": {
        "temperature": 89.14226648351658,
        "uv": 2.6982600732600734,
        "humidity": 0.5683287545787549,
        "ozone": 291.71913919413936,
        "windSpeed": 11.553704212454232
    }
}