{
    "city": "Lubbock",
    "spring": {
        "temperature": 56.290077027639406,
        "uv": 1.8183053919347532,
        "humidity": 0.5419392840960582,
        "ozone": 302.52061622111506,
        "windSpeed": 11.268482102401462
    },
    "winter": {
        "temperature": 44.93650183150176,
        "uv": 0.75,
        "humidity": 0.5044001831501842,
        "ozone": 277.4255494505496,
        "windSpeed": 10.49680402930403
    },
    "autumn": {
        "temperature": 64.83964302059496,
        "uv": 1.622883295194508,
        "humidity": 0.5677025171624729,
        "ozone": 279.1444393592681,
        "windSpeed": 9.444297482837536
    },
    "summer": {
        "temperature": 79.45986721611715,
        "uv": 2.706959706959707,
        "humidity": 0.5141208791208789,
        "ozone": 302.2458333333336,
        "windSpeed": 10.173690476190487
    }
}