{
    "city": "Minneapolis",
    "spring": {
        "temperature": 37.380471227911244,
        "uv": 1.073855913004078,
        "humidity": 0.6901178069777969,
        "ozone": 361.2643860444044,
        "windSpeed": 6.441685545990035
    },
    "winter": {
        "temperature": 19.15195054945059,
        "uv": 0.2206959706959707,
        "humidity": 0.747028388278391,
        "ozone": 339.9173992673995,
        "windSpeed": 5.923983516483515
    },
    "autumn": {
        "temperature": 51.77161556064065,
        "uv": 0.9002288329519451,
        "humidity": 0.7253363844393588,
        "ozone": 294.1160183066362,
        "windSpeed": 7.161610983981689
    },
    "summer": {
        "temperature": 70.8392719780219,
        "uv": 1.9647435897435896,
        "humidity": 0.7266025641025677,
        "ozone": 324.4631868131867,
        "windSpeed": 5.114084249084243
    }
}