{
    "city": "Pittsburgh",
    "spring": {
        "temperature": 49.12904848210229,
        "uv": 1.2487539646579067,
        "humidity": 0.66202990484821,
        "ozone": 336.9577707294973,
        "windSpeed": 6.595373810602638
    },
    "winter": {
        "temperature": 35.08166666666666,
        "uv": 0.3663003663003663,
        "humidity": 0.743237179487179,
        "ozone": 308.9741758241763,
        "windSpeed": 5.3825961538461495
    },
    "autumn": {
        "temperature": 60.92735469107546,
        "uv": 1.119450800915332,
        "humidity": 0.6905629290617855,
        "ozone": 290.17807780320413,
        "windSpeed": 3.8465034324942837
    },
    "summer": {
        "temperature": 73.00393315018334,
        "uv": 2.0851648351648353,
        "humidity": 0.7561767399267422,
        "ozone": 320.10938644688616,
        "windSpeed": 4.9471749084249135
    }
}