{
    "city": "Scottsdale",
    "spring": {
        "temperature": 68.85692934782614,
        "uv": 1.8482789855072463,
        "humidity": 0.3348324275362325,
        "ozone": 313.72346014492723,
        "windSpeed": 3.055212862318844
    },
    "winter": {
        "temperature": 55.22091575091578,
        "uv": 0.7023809523809523,
        "humidity": 0.5397481684981685,
        "ozone": 286.71451465201477,
        "windSpeed": 2.60132783882784
    },
    "autumn": {
        "temperature": 81.14346153846172,
        "uv": 1.635989010989011,
        "humidity": 0.28500000000000086,
        "ozone": 282.5195970695969,
        "windSpeed": 2.9181547619047676
    },
    "summer": {
        "temperature": 91.9791941391939,
        "uv": 2.6405677655677655,
        "humidity": 0.2092445054945051,
        "ozone": 311.10764652014626,
        "windSpeed": 3.212216117216115
    }
}