{
    "city": "Washington",
    "spring": {
        "temperature": 54.214327140915245,
        "uv": 1.3543271409152695,
        "humidity": 0.6223153602174932,
        "ozone": 329.2553692795647,
        "windSpeed": 6.642650657000447
    },
    "winter": {
        "temperature": 39.56660714285709,
        "uv": 0.44184981684981683,
        "humidity": 0.6557554945054944,
        "ozone": 298.5481227106221,
        "windSpeed": 5.663058608058602
    },
    "autumn": {
        "temperature": 64.88924027459943,
        "uv": 1.1931350114416477,
        "humidity": 0.6472814645308913,
        "ozone": 288.27043478260873,
        "windSpeed": 4.987482837528619
    },
    "summer": {
        "temperature": 78.36040750915758,
        "uv": 2.1913919413919416,
        "humidity": 0.6701831501831519,
        "ozone": 319.0307234432229,
        "windSpeed": 5.339711538461541
    }
}